[
  {
    "author": [
      {
        "family": "Chandola",
        "given": "Varun"
      },
      {
        "family": "Banerjee",
        "given": "Arindam"
      },
      {
        "family": "Kumar",
        "given": "Vipin"
      }
    ],
    "container-title": "ACM computing surveys (CSUR)",
    "id": "chandola2009anomaly",
    "issue": "3",
    "issued": {
      "date-parts": [
        [
          2009
        ]
      ]
    },
    "page": "1-58",
    "publisher": "ACM New York, NY, USA",
    "title": "Anomaly detection: A survey",
    "title-short": "Anomaly detection",
    "type": "article-journal",
    "volume": "41"
  },
  {
    "author": [
      {
        "family": "Schlegl",
        "given": "Thomas"
      },
      {
        "family": "Seeböck",
        "given": "Philipp"
      },
      {
        "family": "Waldstein",
        "given": "Sebastian M"
      },
      {
        "family": "Schmidt-Erfurth",
        "given": "Ursula"
      },
      {
        "family": "Langs",
        "given": "Georg"
      }
    ],
    "container-title": "International conference on information processing in medical imaging",
    "id": "schlegl2017unsupervised",
    "issued": {
      "date-parts": [
        [
          2017
        ]
      ]
    },
    "page": "146-157",
    "publisher": "Springer",
    "title": "Unsupervised anomaly detection with generative adversarial networks to guide marker discovery",
    "type": "paper-conference"
  },
  {
    "author": [
      {
        "family": "Staar",
        "given": "Benjamin"
      },
      {
        "family": "Lütjen",
        "given": "Michael"
      },
      {
        "family": "Freitag",
        "given": "Michael"
      }
    ],
    "container-title": "Procedia CIRP",
    "id": "staar2019anomaly",
    "issued": {
      "date-parts": [
        [
          2019
        ]
      ]
    },
    "page": "484-489",
    "publisher": "Elsevier",
    "title": "Anomaly detection with convolutional neural networks for industrial surface inspection",
    "type": "article-journal",
    "volume": "79"
  },
  {
    "author": [
      {
        "family": "Bergmann",
        "given": "Paul"
      },
      {
        "family": "Fauser",
        "given": "Michael"
      },
      {
        "family": "Sattlegger",
        "given": "David"
      },
      {
        "family": "Steger",
        "given": "Carsten"
      }
    ],
    "container-title": "Proceedings of the IEEE/CVF conference on computer vision and pattern recognition",
    "id": "bergmann2019mvtec",
    "issued": {
      "date-parts": [
        [
          2019
        ]
      ]
    },
    "page": "9592-9600",
    "title": "MVTec AD–a comprehensive real-world dataset for unsupervised anomaly detection",
    "type": "paper-conference"
  }
]
