[
  {
    "author": [
      {
        "family": "Gribonval",
        "given": "Rémi"
      },
      {
        "family": "Blanchard",
        "given": "Gilles"
      },
      {
        "family": "Keriven",
        "given": "Nicolas"
      },
      {
        "family": "Traonmilin",
        "given": "Yann"
      }
    ],
    "container-title": "Mathematical Statistics and Learning",
    "id": "gribonval2021compressive",
    "issue": "2",
    "issued": {
      "date-parts": [
        [
          2021
        ]
      ]
    },
    "page": "113-164",
    "title": "Compressive statistical learning with random feature moments",
    "type": "article-journal",
    "volume": "3"
  },
  {
    "author": [
      {
        "family": "Keriven",
        "given": "Nicolas"
      },
      {
        "family": "Bourrier",
        "given": "Anthony"
      },
      {
        "family": "Gribonval",
        "given": "Rémi"
      },
      {
        "family": "Pérez",
        "given": "Patrick"
      }
    ],
    "container-title": "Information and Inference: A Journal of the IMA",
    "id": "keriven2018sketching",
    "issue": "3",
    "issued": {
      "date-parts": [
        [
          2018
        ]
      ]
    },
    "page": "447-508",
    "publisher": "Oxford University Press",
    "title": "Sketching for large-scale learning of mixture models",
    "type": "article-journal",
    "volume": "7"
  }
]
