[
  {
    "DOI": "10.1109/CVPRW.2019.00228",
    "author": [
      {
        "family": "Brummer",
        "given": "Benoit"
      },
      {
        "family": "De Vleeschouwer",
        "given": "Christophe"
      }
    ],
    "container-title": "2019 IEEE/CVF conference on computer vision and pattern recognition workshops (CVPRW)",
    "id": "nind",
    "issued": {
      "date-parts": [
        [
          2019
        ]
      ]
    },
    "page": "1777-1784",
    "title": "Natural Image Noise Dataset",
    "type": "paper-conference"
  },
  {
    "DOI": "10.1109/ICIP.1997.647985",
    "author": [
      {
        "family": "Chang",
        "given": "S. G."
      },
      {
        "family": "Yu",
        "given": "B."
      },
      {
        "family": "Vetterli",
        "given": "M."
      }
    ],
    "collection-number": "",
    "container-title": "Proceedings of international conference on image processing",
    "id": "wavdc",
    "issued": {
      "date-parts": [
        [
          1997
        ]
      ]
    },
    "page": "604-607 vol.1",
    "title": "Image denoising via lossy compression and wavelet thresholding",
    "type": "paper-conference",
    "volume": "1"
  },
  {
    "DOI": "10.1016/j.image.2006.11.006",
    "ISSN": "0923-5965",
    "abstract": "This paper presents a novel scheme for simultaneous compression and denoising of images: WISDOW-Comp (Wavelet based Image and Signal Denoising via Overlapping Waves-Compression). It is based on the atomic representation of wavelet details employed in WISDOW for image denoising. However, atoms can be also used for achieving compression. In particular, the core of WISDOW-Comp consists of recovering wavelet details, i.e. atoms, by exploiting wavelet low frequency information. Therefore, just the approximation band and significance map of atoms absolute maxima have to be encoded and sent to the decoder for recovering a cleaner as well as compressed version of the image under study. Experimental results show that WISDOW-Comp outperforms the state of the art of compression based denoisers in terms of both rate and distortion. Some technical devices will also be investigated for further improving its performances.",
    "author": [
      {
        "family": "Bruni",
        "given": "V."
      },
      {
        "family": "Vitulano",
        "given": "D."
      }
    ],
    "container-title": "Image Commun.",
    "id": "wavdc2",
    "issue": "1",
    "issued": {
      "date-parts": [
        [
          2007,
          1
        ]
      ]
    },
    "keyword": "Image compression; Overlapping effects principle; Minimum description length principle; Image restoration; Wavelets; Thresholding",
    "page": "86-101",
    "publisher": "Elsevier Science Inc.",
    "publisher-place": "USA",
    "title": "Combined image compression and denoising using wavelets",
    "type": "article-journal",
    "volume": "22"
  },
  {
    "DOI": "10.1117/12.2597828",
    "author": [
      {
        "family": "Testolina",
        "given": "Michela"
      },
      {
        "family": "Upenik",
        "given": "Evgeniy"
      },
      {
        "family": "Ebrahimi",
        "given": "Touradj"
      }
    ],
    "container-title": "Applications of digital image processing XLIV",
    "editor": [
      {
        "family": "Tescher",
        "given": "Andrew G."
      },
      {
        "family": "Ebrahimi",
        "given": "Touradj"
      }
    ],
    "id": "testolina",
    "issued": {
      "date-parts": [
        [
          2021
        ]
      ]
    },
    "keyword": "Image denoising; learning-based compression; compressed domain denoising; latent space; image processing",
    "page": "412 - 422",
    "publisher": "International Society for Optics; Photonics; SPIE",
    "title": "Towards image denoising in the latent space of learning-based compression",
    "type": "paper-conference",
    "volume": "11842"
  },
  {
    "author": [
      {
        "family": "Ballé",
        "given": "Johannes"
      },
      {
        "family": "Laparra",
        "given": "Valero"
      },
      {
        "family": "Simoncelli",
        "given": "Eero"
      }
    ],
    "container-title": "5th international conference on learning representations, ICLR 2017",
    "id": "balle2017",
    "issued": {
      "date-parts": [
        [
          2017
        ]
      ]
    },
    "publisher-place": "Toulon, France",
    "title": "End-to-end optimized image compression",
    "type": "paper-conference"
  },
  {
    "author": [
      {
        "family": "Ballé",
        "given": "Johannes"
      },
      {
        "family": "Minnen",
        "given": "David"
      },
      {
        "family": "Singh",
        "given": "Saurabh"
      },
      {
        "family": "Hwang",
        "given": "Sung Jin"
      },
      {
        "family": "Johnston",
        "given": "Nick"
      }
    ],
    "container-title": "International conference on learning representations",
    "id": "balle2018",
    "issued": {
      "date-parts": [
        [
          2018
        ]
      ]
    },
    "title": "Variational image compression with a scale hyperprior",
    "type": "paper-conference"
  },
  {
    "id": "clictest",
    "issued": {
      "date-parts": [
        [
          2020
        ]
      ]
    },
    "publisher": "http://clic.compression.cc/2021/tasks; ETH Zürich Computer Vision Lab",
    "title": "Challenge on learned image compression",
    "type": ""
  },
  {
    "id": "fp",
    "note": "Accessed: 2020-04-03",
    "publisher": "https://commons.wikimedia.org/wiki/Category:Featured_pictures_on_Wikimedia_Commons; Wikimedia Foundation",
    "title": "Featured pictures on wikimedia commons",
    "type": ""
  },
  {
    "DOI": "10.1109/ACSSC.2003.1292216",
    "ISSN": "null",
    "author": [
      {
        "family": "Wang",
        "given": "Zhou"
      },
      {
        "family": "Simoncelli",
        "given": "Eero P."
      },
      {
        "family": "Bovik",
        "given": "Alan C."
      }
    ],
    "container-title": "The thrity-seventh asilomar conference on signals, systems computers, 2003",
    "id": "msssim",
    "issued": {
      "date-parts": [
        [
          2003,
          11
        ]
      ]
    },
    "page": "1398-1402 Vol.2",
    "title": "Multiscale structural similarity for image quality assessment",
    "type": "paper-conference",
    "volume": "2"
  },
  {
    "DOI": "10.1109/cvprw53098.2021.00212",
    "author": [
      {
        "family": "Brummer",
        "given": "Benoit"
      },
      {
        "family": "De Vleeschouwer",
        "given": "Christophe"
      }
    ],
    "container-title": "Proceedings of the IEEE/CVF conference on computer vision and pattern recognition (CVPR) workshops",
    "id": "manypriors",
    "issued": {
      "date-parts": [
        [
          2021
        ]
      ]
    },
    "page": "1890-1894",
    "title": "End-to-end optimized image compression with competition of prior distributions",
    "type": "paper-conference"
  },
  {
    "DOI": "10.1109/CVPR.2018.00347",
    "author": [
      {
        "family": "Chen",
        "given": "Chen"
      },
      {
        "family": "Chen",
        "given": "Qifeng"
      },
      {
        "family": "Xu",
        "given": "Jia"
      },
      {
        "family": "Koltun",
        "given": "Vladlen"
      }
    ],
    "container-title": "The IEEE conference on computer vision and pattern recognition (CVPR)",
    "id": "learningtoseeinthedark",
    "issued": {
      "date-parts": [
        [
          2018,
          6
        ]
      ]
    },
    "page": "3291-3300",
    "title": "Learning to see in the dark",
    "type": "paper-conference"
  },
  {
    "author": [
      {
        "family": "Hinton",
        "given": "Geoffrey"
      },
      {
        "family": "Vinyals",
        "given": "Oriol"
      },
      {
        "family": "Dean",
        "given": "Jeffrey"
      }
    ],
    "container-title": "NIPS deep learning and representation learning workshop",
    "id": "knowledgedistillation",
    "issued": {
      "date-parts": [
        [
          2015
        ]
      ]
    },
    "title": "Distilling the knowledge in a neural network",
    "type": "paper-conference"
  },
  {
    "DOI": "10.1109/CVPR.2018.00182",
    "author": [
      {
        "family": "Abdelhamed",
        "given": "Abdelrahman"
      },
      {
        "family": "Lin",
        "given": "Stephen"
      },
      {
        "family": "Brown",
        "given": "Michael S."
      }
    ],
    "container-title": "2018 IEEE/CVF conference on computer vision and pattern recognition",
    "id": "sidd",
    "issued": {
      "date-parts": [
        [
          2018
        ]
      ]
    },
    "page": "1692-1700",
    "title": "A high-quality denoising dataset for smartphone cameras",
    "type": "paper-conference"
  },
  {
    "DOI": "10.1007/978-3-319-24574-4\\_28",
    "ISBN": "978-3-319-24574-4",
    "abstract": "There is large consent that successful training of deep networks requires many thousand annotated training samples. In this paper, we present a network and training strategy that relies on the strong use of data augmentation to use the available annotated samples more efficiently. The architecture consists of a contracting path to capture context and a symmetric expanding path that enables precise localization. We show that such a network can be trained end-to-end from very few images and outperforms the prior best method (a sliding-window convolutional network) on the ISBI challenge for segmentation of neuronal structures in electron microscopic stacks. Using the same network trained on transmitted light microscopy images (phase contrast and DIC) we won the ISBI cell tracking challenge 2015 in these categories by a large margin. Moreover, the network is fast. Segmentation of a 512x512 image takes less than a second on a recent GPU. The full implementation (based on Caffe) and the trained networks are available at http://lmb.informatik.uni-freiburg.de/people/ronneber/u-net.",
    "author": [
      {
        "family": "Ronneberger",
        "given": "Olaf"
      },
      {
        "family": "Fischer",
        "given": "Philipp"
      },
      {
        "family": "Brox",
        "given": "Thomas"
      }
    ],
    "container-title": "Medical image computing and computer-assisted intervention – MICCAI 2015",
    "editor": [
      {
        "family": "Navab",
        "given": "Nassir"
      },
      {
        "family": "Hornegger",
        "given": "Joachim"
      },
      {
        "family": "Wells",
        "given": "William M."
      },
      {
        "family": "Frangi",
        "given": "Alejandro F."
      }
    ],
    "id": "unet",
    "issued": {
      "date-parts": [
        [
          2015
        ]
      ]
    },
    "page": "234-241",
    "publisher": "Springer International Publishing",
    "publisher-place": "Cham",
    "title": "U-net: Convolutional networks for biomedical image segmentation",
    "title-short": "U-net",
    "type": "paper-conference"
  },
  {
    "DOI": "10.1364/AO.50.003829",
    "abstract": "The majority of hyperspectral data exploitation algorithms are developed using statistical models for the data that include sensor noise. Hyperspectral data collected using charge-coupled devices or other photon detectors have sensor noise that is directly dependent on the amplitude of the signal collected. However, this signal dependence is often ignored. Additionally, the statistics of the noise can vary spatially and spectrally as a result of camera characteristics and the calibration process applied to the data. Here, we examine the expected noise characteristics of both raw and calibrated visible/near-infrared hyperspectral data and provide a method for estimating the noise statistics using calibration data or directly from the imagery if calibration data is unavailable.",
    "author": [
      {
        "family": "Meola",
        "given": "Joseph"
      },
      {
        "family": "Eismann",
        "given": "Michael T."
      },
      {
        "family": "Moses",
        "given": "Randolph L."
      },
      {
        "family": "Ash",
        "given": "Joshua N."
      }
    ],
    "container-title": "Appl. Opt.",
    "id": "artnoise",
    "issue": "21",
    "issued": {
      "date-parts": [
        [
          2011,
          7
        ]
      ]
    },
    "keyword": "Multispectral and hyperspectral imaging; Passive remote sensing; Charge coupled devices; Image metrics; Imaging noise; Radiometric calibration; Thermal imaging; Thermal infrared imaging",
    "page": "3829-3846",
    "publisher": "OSA",
    "title": "Modeling and estimation of signal-dependent noise in hyperspectral imagery",
    "type": "article-journal",
    "volume": "50"
  },
  {
    "DOI": "10.1002/aic.690370209",
    "abstract": "Abstract Nonlinear principal component analysis is a novel technique for multivariate data analysis, similar to the well-known method of principal component analysis. NLPCA, like PCA, is used to identify and remove correlations among problem variables as an aid to dimensionality reduction, visualization, and exploratory data analysis. While PCA identifies only linear correlations between variables, NLPCA uncovers both linear and nonlinear correlations, without restriction on the character of the nonlinearities present in the data. NLPCA operates by training a feedforward neural network to perform the identity mapping, where the network inputs are reproduced at the output layer. The network contains an internal “bottleneck” layer (containing fewer nodes than input or output layers), which forces the network to develop a compact representation of the input data, and two additional hidden layers. The NLPCA method is demonstrated using time-dependent, simulated batch reaction data. Results show that NLPCA successfully reduces dimensionality and produces a feature space map resembling the actual distribution of the underlying system parameters.",
    "author": [
      {
        "family": "Kramer",
        "given": "Mark A."
      }
    ],
    "container-title": "AIChE Journal",
    "id": "autoencoder",
    "issue": "2",
    "issued": {
      "date-parts": [
        [
          1991
        ]
      ]
    },
    "page": "233-243",
    "title": "Nonlinear principal component analysis using autoassociative neural networks",
    "type": "article-journal",
    "volume": "37"
  },
  {
    "URL": "https://arxiv.org/abs/1802.00847",
    "author": [
      {
        "family": "Ballé",
        "given": "Johannes"
      }
    ],
    "container-title": "2018 picture coding symposium (PCS)",
    "id": "gdn",
    "issued": {
      "date-parts": [
        [
          2018
        ]
      ]
    },
    "title": "Efficient nonlinear transforms for lossy image compression",
    "type": "paper-conference"
  },
  {
    "DOI": "10.1109/CVPR.2017.294",
    "URL": "https://arxiv.org/abs/1707.01313",
    "author": [
      {
        "family": "Plötz",
        "given": "Tobias"
      },
      {
        "family": "Roth",
        "given": "Stefan"
      }
    ],
    "container-title": "2017 IEEE/CVF conference on computer vision and pattern recognition workshops (CVPR)",
    "id": "dnd",
    "issued": {
      "date-parts": [
        [
          2017
        ]
      ]
    },
    "page": "2750-2759",
    "title": "Benchmarking denoising algorithms with real photographs",
    "type": "paper-conference"
  },
  {
    "DOI": "10.1109/CVPR.2005.38",
    "ISSN": "1063-6919",
    "author": [
      {
        "family": "Buades",
        "given": "A."
      },
      {
        "family": "Coll",
        "given": "B."
      },
      {
        "dropping-particle": "-.",
        "family": "Morel",
        "given": "J."
      }
    ],
    "collection-number": "",
    "container-title": "2005 IEEE computer society conference on computer vision and pattern recognition (CVPR’05)",
    "id": "nlm",
    "issued": {
      "date-parts": [
        [
          2005
        ]
      ]
    },
    "keyword": "image denoising; image resolution; smoothing methods; nonlocal algorithm; digital image denoising method; local smoothing filters; NL-means algorithm; Image denoising; Noise reduction; Algorithm design and analysis; Smoothing methods; Wiener filter; Filtering; Noise measurement; Digital images; Pixel; White noise",
    "page": "60-65 vol. 2",
    "title": "A non-local algorithm for image denoising",
    "type": "paper-conference",
    "volume": "2"
  },
  {
    "DOI": "10.1117/12.643267",
    "author": [
      {
        "family": "Dabov",
        "given": "Kostadin"
      },
      {
        "family": "Foi",
        "given": "Alessandro"
      },
      {
        "family": "Katkovnik",
        "given": "Vladimir"
      },
      {
        "family": "Egiazarian",
        "given": "Karen"
      }
    ],
    "container-title": "Proceedings of SPIE - The International Society for Optical Engineering",
    "id": "bm3d",
    "issued": {
      "date-parts": [
        [
          2006,
          2
        ]
      ]
    },
    "page": "354-365",
    "title": "Image denoising with block-matching and 3D filtering",
    "type": "article-journal",
    "volume": "6064"
  },
  {
    "DOI": "10.1109/ICMET.2010.5598411",
    "ISBN": "978-1-4244-8100-2",
    "author": [
      {
        "family": "Ruikar",
        "given": "Dr. Sachin"
      },
      {
        "family": "Doye",
        "given": "Dharmpal"
      }
    ],
    "container-title": "2010 international conference on mechanical and electrical technology",
    "id": "wavdenoise",
    "issued": {
      "date-parts": [
        [
          2010,
          9
        ]
      ]
    },
    "page": "509-515",
    "title": "Image denoising using wavelet transform",
    "type": "paper-conference"
  },
  {
    "author": [
      {
        "family": "Li",
        "given": "Yao"
      },
      {
        "family": "Fu",
        "given": "Xueyang"
      },
      {
        "family": "Zha",
        "given": "Zheng-Jun"
      }
    ],
    "container-title": "Proceedings of the IEEE/CVF international conference on computer vision (ICCV)",
    "id": "cnndenoise1",
    "issued": {
      "date-parts": [
        [
          2021
        ]
      ]
    },
    "page": "4651-4660",
    "title": "Cross-patch graph convolutional network for image denoising",
    "type": "paper-conference"
  },
  {
    "author": [
      {
        "family": "Cai",
        "given": "Haoming"
      },
      {
        "family": "He",
        "given": "Jingwen"
      },
      {
        "family": "Yu",
        "given": "Qiao Xiao"
      },
      {
        "family": "Dong",
        "given": "Chao"
      }
    ],
    "container-title": "2021 IEEE/CVF Conference on Computer Vision and Pattern Recognition Workshops (CVPRW)",
    "id": "cnndenoise2",
    "issued": {
      "date-parts": [
        [
          2021
        ]
      ]
    },
    "page": "294-303",
    "title": "Toward interactive modulation for photo-realistic image restoration",
    "type": "article-journal"
  },
  {
    "author": [
      {
        "family": "Blau",
        "given": "Yochai"
      },
      {
        "family": "Michaeli",
        "given": "Tomer"
      }
    ],
    "container-title": "Proceedings of the IEEE conference on computer vision and pattern recognition (CVPR)",
    "id": "perceptiondistortion",
    "issued": {
      "date-parts": [
        [
          2018
        ]
      ]
    },
    "title": "The perception-distortion tradeoff",
    "type": "paper-conference"
  }
]
